%YAML 1.1
%TAG !u! tag:unity3d.com,2011:
--- !u!114 &11400000
MonoBehaviour:
  m_ObjectHideFlags: 0
  m_CorrespondingSourceObject: {fileID: 0}
  m_PrefabInstance: {fileID: 0}
  m_PrefabAsset: {fileID: 0}
  m_GameObject: {fileID: 0}
  m_Enabled: 1
  m_EditorHideFlags: 0
  m_Script: {fileID: 11500000, guid: 4d06b73fe9a7ebf4c9555eb5228fb13e, type: 3}
  m_Name: Apartments
  m_EditorClassIdentifier: 
  nameBuilding: apartments
  readyBuilding: {fileID: 3720156637867190131, guid: 916bdaa4c0492bc4fac98d5e46164ba2, type: 3}
  foundationBuilding: {fileID: 6973011626499606248, guid: 8a6cad2e948d7484184d453e4151de57, type: 3}
  destroedBulding: {fileID: 5229330552866934463, guid: 9dfe41c4d68b48a48a72dbd208425815, type: 3}
  baseBuildPrice: 100
  baseRepairPrice: 50
  baseSellPrice: 50
  baseLevelUpPrice: 75
