%YAML 1.1
%TAG !u! tag:unity3d.com,2011:
--- !u!114 &11400000
MonoBehaviour:
  m_ObjectHideFlags: 0
  m_CorrespondingSourceObject: {fileID: 0}
  m_PrefabInstance: {fileID: 0}
  m_PrefabAsset: {fileID: 0}
  m_GameObject: {fileID: 0}
  m_Enabled: 1
  m_EditorHideFlags: 0
  m_Script: {fileID: 11500000, guid: 9a553682611cdd841adb7e48529dbd82, type: 3}
  m_Name: New Buildings Data List
  m_EditorClassIdentifier: 
  buildings:
  - {fileID: 2406470257691747032, guid: 50b114ec91e25eb47a5eb6615a76c0d7, type: 3}
  - {fileID: 4011723810662216353, guid: 8a62b9a90a297534cb7836b0ce68d0fd, type: 3}
  - {fileID: 3890510367746566262, guid: 52a057d03d89a1f4eb9fe521bf106b26, type: 3}
